…
``` r
# team pts scored each week slugs
end_games
```

    ## # A tibble: 93 × 13
    ##    game_id   date        week away_team away_score home_score home_team win_team
    ##    <chr>     <date>     <dbl> <chr>          <dbl>      <dbl> <chr>     <chr>   
    ##  1 2023_01_… 2023-09-10     1 ARI               16         20 WAS       WAS     
    ##  2 2023_01_… 2023-09-11     1 BUF               16         22 NYJ       NYJ     
    ##  3 2023_01_… 2023-09-10     1 CAR               10         24 ATL       ATL     
    ##  4 2023_01_… 2023-09-10     1 CIN                3         24 CLE       CLE     
    ##  5 2023_01_… 2023-09-10     1 DAL               40          0 NYG       DAL     
    ##  6 2023_01_… 2023-09-07     1 DET               21         20 KC        DET     
    ##  7 2023_01_… 2023-09-10     1 GB                38         20 CHI       GB      
    ##  8 2023_01_… 2023-09-10     1 HOU                9         25 BAL       BAL     
    ##  9 2023_01_… 2023-09-10     1 JAX               31         21 IND       JAX     
    ## 10 2023_01_… 2023-09-10     1 LA                30         13 SEA       LA      
    ## # ℹ 83 more rows
    ## # ℹ 5 more variables: win_score <dbl>, lose_team <chr>, lose_score <dbl>,
    ## #   game_margin <dbl>, total_points <dbl>
…
